"sku";"verwendung"
"401-000";"Bremse"
"401-001";"Bremse"
"401-002";"Bremse"
"401-005";"Bremse"
"401-006";"Bremse"
"401-010";"Bremse"
"401-014";"Bremse"
"401-015";"Bremse"
"401-019";"Bremse"
"401-020";"Bremse"
"401-021";"Bremse"
"401-023";"Bremse"
"401-024";"Bremse"
"401-033";"Bremse"
"401-035";"Bremse"
"401-038";"Bremse"
"401-041";"Bremse"
"401-042";"Bremse"
"401-043";"Bremse"
"401-100";"Kupplung"
"401-101";"Kupplung"
"401-102";"Kupplung"
"401-103";"Kupplung"
"401-105";"Kupplung"
"401-106";"Kupplung"
"401-109";"Kupplung"
"401-110";"Kupplung"
"401-111";"Kupplung"
"401-113";"Kupplung"
"401-114";"Kupplung"
"401-115";"Kupplung"
"401-116";"Kupplung"
"401-120";"Kupplung"
"401-122";"Kupplung"
"401-123";"Kupplung"
"401-124";"Kupplung"
"401-125";"Kupplung"
"401-130";"Kupplung"
"401-131";"Kupplung"
"401-132";"Kupplung"
"401-133";"Kupplung"
"401-134";"Kupplung"
"401-135";"Kupplung"
"401-215";"Bremse"
"401-216";"Bremse"
"401-217";"Bremse"
"401-220";"Bremse"
"401-225";"Bremse"
"401-226";"Bremse"
"401-227";"Bremse"
"401-229";"Bremse"
"401-230";"Bremse"
"401-235";"Bremse"
"401-238";"Bremse"
"401-239";"Bremse"
"401-305";"Kupplung"
"401-306";"Kupplung"
"401-307";"Kupplung"
"401-308";"Kupplung"
"401-310";"Kupplung"
"401-315";"Kupplung"
"401-320";"Kupplung"
"401-321";"Kupplung"
"401-322";"Kupplung"
"401-323";"Kupplung"
"401-324";"Kupplung"
"401-325";"Kupplung"
"401-328";"Kupplung"
"401-329";"Kupplung"
"401-330";"Kupplung"
"401-405";"Bremse"
"401-410";"Bremse"
"401-411";"Bremse"
"401-413";"Bremse"
"401-414";"Bremse"
"401-415";"Bremse"
"401-420";"Bremse"
"401-421";"Bremse"
"401-422";"Bremse"
"401-423";"Bremse"
"401-505";"Kupplung"
"401-512";"Kupplung"
"401-513";"Kupplung"
"401-515";"Kupplung"
"401-516";"Kupplung"
"401-519";"Kupplung"
"401-520";"Kupplung"
"401-521";"Kupplung"
"401-522";"Kupplung"
"401-523";"Kupplung"
"401-525";"Kupplung"
"401-526";"Kupplung"
"401-582";"Kupplung"
"401-601";"Bremse"
"401-602";"Bremse"
"401-603";"Bremse"
"401-604";"Bremse"
"401-605";"Bremse"
"401-606";"Bremse"
"401-607";"Bremse"
"401-609";"Bremse"
"401-610";"Bremse"
"401-615";"Bremse"
"401-618";"Bremse"
"401-619";"Bremse"
"401-620";"Bremse"
"401-622";"Bremse"
"401-624";"Bremse"
"401-625";"Bremse"
"401-702";"Kupplung"
"401-704";"Kupplung"
"401-705";"Kupplung"
"401-706";"Kupplung"
"401-710";"Kupplung"
"401-716";"Kupplung"
"401-717";"Kupplung"
"401-718";"Kupplung"
"401-719";"Kupplung"
"401-720";"Kupplung"
"401-721";"Kupplung"
"401-722";"Kupplung"
"401-723";"Kupplung"
"401-724";"Kupplung"
"401-905";"Kupplung"
"401-907";"Kupplung"
"401-910";"Bremse"
"550A015.1";"Montage Kit"
"550A019";"Montage Kit"
"550A019.2SW";"Montage Kit"
"550A022.1";"Montage Kit"
"550B032";"Montage Kit"
"550B035";"Montage Kit"
"550B040";"Montage Kit"
"550B040SW";"Montage Kit"
"550B048";"Montage Kit"
"550B054";"Montage Kit"
"550BE01";"Montage Kit"
"550D018";"Montage Kit"
"550D023";"Montage Kit"
"550D030";"Montage Kit"
"550D037";"Montage Kit"
"550D048.1SW";"Montage Kit"
"550H046";"Montage Kit"
"550H047";"Montage Kit"
"550H074";"Montage Kit"
"550H075";"Montage Kit"
"550H080";"Montage Kit"
"550H086";"Montage Kit"
"550H090";"Montage Kit"
"550H091";"Montage Kit"
"550H093";"Montage Kit"
"550H097";"Montage Kit"
"550H101";"Montage Kit"
"550H102";"Montage Kit"
"550H103";"Montage Kit"
"550H111.2SW";"Montage Kit"
"550H114";"Montage Kit"
"550H117.1";"Montage Kit"
"550H118.2SW";"Montage Kit"
"550H120";"Montage Kit"
"550H122.2SW";"Montage Kit"
"550H125.1";"Montage Kit"
"550H127";"Montage Kit"
"550H127.2SW";"Montage Kit"
"550H131.1";"Montage Kit"
"550H133.1";"Montage Kit"
"550H138.1";"Montage Kit"
"550H140.1";"Montage Kit"
"550H141.1";"Montage Kit"
"550H142.1";"Montage Kit"
"550H143";"Montage Kit"
"550H155.1";"Montage Kit"
"550H156.1";"Montage Kit"
"550H159.1";"Montage Kit"
"550H163.1";"Montage Kit"
"550H165SW";"Montage Kit"
"550H170.2SW";"Montage Kit"
"550H170SI";"Montage Kit"
"550H175";"Montage Kit"
"550H175.2SW";"Montage Kit"
"550H181.1";"Montage Kit"
"550HY01";"Montage Kit"
"550K053";"Montage Kit"
"550K091";"Montage Kit"
"550K096";"Montage Kit"
"550K099";"Montage Kit"
"550K101";"Montage Kit"
"550K102";"Montage Kit"
"550K104";"Montage Kit"
"550K107";"Montage Kit"
"550K107.1";"Montage Kit"
"550K113";"Montage Kit"
"550K114";"Montage Kit"
"550K115";"Montage Kit"
"550K117";"Montage Kit"
"550K120.1";"Montage Kit"
"550K124";"Montage Kit"
"550K127";"Montage Kit"
"550K131";"Montage Kit"
"550K131.1";"Montage Kit"
"550K133";"Montage Kit"
"550K134";"Montage Kit"
"550K135";"Montage Kit"
"550K135.1";"Montage Kit"
"550K136";"Montage Kit"
"550K136.1";"Montage Kit"
"550K138";"Montage Kit"
"550K138.1";"Montage Kit"
"550K138.1SW";"Montage Kit"
"550K140.1";"Montage Kit"
"550K143";"Montage Kit"
"550K144.1";"Montage Kit"
"550K144.1SW";"Montage Kit"
"550K145.1";"Montage Kit"
"550K146";"Montage Kit"
"550K146.1";"Montage Kit"
"550K148";"Montage Kit"
"550K149.1";"Montage Kit"
"550K155SW";"Montage Kit"
"550K157.1SW";"Montage Kit"
"550K159SI";"Montage Kit"
"550K160SW";"Montage Kit"
"550KT07.1";"Montage Kit"
"550KT10.1";"Montage Kit"
"550KT10.1SW";"Montage Kit"
"550KT15.1SW";"Montage Kit"
"550KT16";"Montage Kit"
"550KT17";"Montage Kit"
"550KT19";"Montage Kit"
"550MM01";"Montage Kit"
"550MV03";"Montage Kit"
"550MV08";"Montage Kit"
"550S064";"Montage Kit"
"550S064.1";"Montage Kit"
"550S075";"Montage Kit"
"550S077";"Montage Kit"
"550S082";"Montage Kit"
"550S088";"Montage Kit"
"550S088.1";"Montage Kit"
"550S089";"Montage Kit"
"550S091";"Montage Kit"
"550S091.1";"Montage Kit"
"550S093";"Montage Kit"
"550S093.1";"Montage Kit"
"550S094";"Montage Kit"
"550S097.1";"Montage Kit"
"550S099";"Montage Kit"
"550S099.1";"Montage Kit"
"550S107";"Montage Kit"
"550S108";"Montage Kit"
"550S108.1";"Montage Kit"
"550S114";"Montage Kit"
"550S114.1";"Montage Kit"
"550S117.1";"Montage Kit"
"550S119";"Montage Kit"
"550S120";"Montage Kit"
"550S123";"Montage Kit"
"550S125.1";"Montage Kit"
"550S126";"Montage Kit"
"550S127.1";"Montage Kit"
"550S135";"Montage Kit"
"550S136";"Montage Kit"
"550S137.1SW";"Montage Kit"
"550T017";"Montage Kit"
"550T018";"Montage Kit"
"550T024";"Montage Kit"
"550T024SW";"Montage Kit"
"550T027";"Montage Kit"
"550T028";"Montage Kit"
"550T029";"Montage Kit"
"550T033";"Montage Kit"
"550T033.1SW";"Montage Kit"
"550T037";"Montage Kit"
"550T041";"Montage Kit"
"550T047.1";"Montage Kit"
"550T048.1SW";"Montage Kit"
"550T053.1SW";"Montage Kit"
"550T055.1";"Montage Kit"
"550T072.1SW";"Montage Kit"
"550T075.1";"Montage Kit"
"550T075.1SW";"Montage Kit"
"550Y044";"Montage Kit"
"550Y050";"Montage Kit"
"550Y069";"Montage Kit"
"550Y070";"Montage Kit"
"550Y071";"Montage Kit"
"550Y073";"Montage Kit"
"550Y077";"Montage Kit"
"550Y078";"Montage Kit"
"550Y085";"Montage Kit"
"550Y086";"Montage Kit"
"550Y087";"Montage Kit"
"550Y088";"Montage Kit"
"550Y089";"Montage Kit"
"550Y091";"Montage Kit"
"550Y092";"Montage Kit"
"550Y093";"Montage Kit"
"550Y093SW";"Montage Kit"
"550Y094.1";"Montage Kit"
"550Y101";"Montage Kit"
"550Y104";"Montage Kit"
"550Y106";"Montage Kit"
"550Y106.1";"Montage Kit"
"550Y111";"Montage Kit"
"550Y115.1";"Montage Kit"
"550Y118";"Montage Kit"
"550Y120.1";"Montage Kit"
"550Y121";"Montage Kit"
"550Y124.1";"Montage Kit"
"550Y129";"Montage Kit"
"550Y129.1";"Montage Kit"
"550Y129SW";"Montage Kit"
"550Y134.2SW";"Montage Kit"
"550Y134SW";"Montage Kit"
"550Y144.2SW";"Montage Kit"
"550Y144SW";"Montage Kit"
"556A019BL";"Achs Ball"
"556A019OR";"Achs Ball"
"556A019RT";"Achs Ball"
"556A019SI";"Achs Ball"
"556A019SW";"Achs Ball"
"556A019TI";"Achs Ball"
"556A019WT";"Achs Ball"
"556B040BL";"Achs Ball"
"556B040GO";"Achs Ball"
"556B040OR";"Achs Ball"
"556B040RT";"Achs Ball"
"556B040SI";"Achs Ball"
"556B040SW";"Achs Ball"
"556B040TI";"Achs Ball"
"556B040WT";"Achs Ball"
"556B069BL";"Achs Ball"
"556B069OR";"Achs Ball"
"556B069RT";"Achs Ball"
"556B069SI";"Achs Ball"
"556B069SW";"Achs Ball"
"556B069TI";"Achs Ball"
"556B069WT";"Achs Ball"
"556BU04BL";"Achs Ball"
"556BU04OR";"Achs Ball"
"556BU04RT";"Achs Ball"
"556BU04SI";"Achs Ball"
"556BU04SW";"Achs Ball"
"556BU04TI";"Achs Ball"
"556BU04WT";"Achs Ball"
"556D027OR";"Achs Ball"
"556D027RT";"Achs Ball"
"556D027SI";"Achs Ball"
"556D027SW";"Achs Ball"
"556D038BL";"Achs Ball"
"556D038OR";"Achs Ball"
"556D038RT";"Achs Ball"
"556D038SI";"Achs Ball"
"556D038SW";"Achs Ball"
"556D038TI";"Achs Ball"
"556D038WT";"Achs Ball"
"556D047BL";"Achs Ball"
"556D047OR";"Achs Ball"
"556D047RT";"Achs Ball"
"556D047SI";"Achs Ball"
"556D047SR";"Achs Ball"
"556D047SW";"Achs Ball"
"556D047TI";"Achs Ball"
"556D047WT";"Achs Ball"
"556D049BL";"Achs Ball"
"556D049OR";"Achs Ball"
"556D049RT";"Achs Ball"
"556D049SI";"Achs Ball"
"556D049SW";"Achs Ball"
"556D049TI";"Achs Ball"
"556D049WT";"Achs Ball"
"556H090BL";"Achs Ball"
"556H090OR";"Achs Ball"
"556H090RT";"Achs Ball"
"556H090SI";"Achs Ball"
"556H090SW";"Achs Ball"
"556H090TI";"Achs Ball"
"556H090WT";"Achs Ball"
"556H103BL";"Achs Ball"
"556H103OR";"Achs Ball"
"556H103RT";"Achs Ball"
"556H103SI";"Achs Ball"
"556H103SW";"Achs Ball"
"556H103TI";"Achs Ball"
"556H103WT";"Achs Ball"
"556HU01BL";"Achs Ball"
"556HU01OR";"Achs Ball"
"556HU01RT";"Achs Ball"
"556HU01SI";"Achs Ball"
"556HU01SR";"Achs Ball"
"556HU01SW";"Achs Ball"
"556HU01TI";"Achs Ball"
"556HU01WT";"Achs Ball"
"556HU02BL";"Achs Ball"
"556HU02OR";"Achs Ball"
"556HU02RT";"Achs Ball"
"556HU02SI";"Achs Ball"
"556HU02SW";"Achs Ball"
"556HU02TI";"Achs Ball"
"556HU02WT";"Achs Ball"
"556K101BL";"Achs Ball"
"556K101OR";"Achs Ball"
"556K101RT";"Achs Ball"
"556K101SI";"Achs Ball"
"556K101SW";"Achs Ball"
"556K101TI";"Achs Ball"
"556K101WT";"Achs Ball"
"556K105BL";"Achs Ball"
"556K105OR";"Achs Ball"
"556K105RT";"Achs Ball"
"556K105SI";"Achs Ball"
"556K105SW";"Achs Ball"
"556K105TI";"Achs Ball"
"556K105WT";"Achs Ball"
"556K107BL";"Achs Ball"
"556K107OR";"Achs Ball"
"556K107RT";"Achs Ball"
"556K107SI";"Achs Ball"
"556K107SW";"Achs Ball"
"556K107TI";"Achs Ball"
"556K107WT";"Achs Ball"
"556K126BL";"Achs Ball"
"556K126OR";"Achs Ball"
"556K126RT";"Achs Ball"
"556K126SI";"Achs Ball"
"556K126SW";"Achs Ball"
"556K126TI";"Achs Ball"
"556K126WT";"Achs Ball"
"556K135BL";"Achs Ball"
"556K135GE";"Achs Ball"
"556K135GO";"Achs Ball"
"556K135GR";"Achs Ball"
"556K135OR";"Achs Ball"
"556K135RT";"Achs Ball"
"556K135SI";"Achs Ball"
"556K135SR";"Achs Ball"
"556K135SW";"Achs Ball"
"556K135TI";"Achs Ball"
"556K135WT";"Achs Ball"
"556K150BL";"Achs Ball"
"556K150OR";"Achs Ball"
"556K150RT";"Achs Ball"
"556K150SI";"Achs Ball"
"556K150SW";"Achs Ball"
"556K150TI";"Achs Ball"
"556K150WT";"Achs Ball"
"556K155OR";"Achs Ball"
"556K155RT";"Achs Ball"
"556K155SI";"Achs Ball"
"556K155SW";"Achs Ball"
"556KT07BL";"Achs Ball"
"556KT07OR";"Achs Ball"
"556KT07RT";"Achs Ball"
"556KT07SI";"Achs Ball"
"556KT07SW";"Achs Ball"
"556KT07TI";"Achs Ball"
"556KT07WT";"Achs Ball"
"556S097BL";"Achs Ball"
"556S097OR";"Achs Ball"
"556S097RT";"Achs Ball"
"556S097SI";"Achs Ball"
"556S097SW";"Achs Ball"
"556S097TI";"Achs Ball"
"556S097WT";"Achs Ball"
"556S099BL";"Achs Ball"
"556S099OR";"Achs Ball"
"556S099RT";"Achs Ball"
"556S099SI";"Achs Ball"
"556S099SW";"Achs Ball"
"556S099TI";"Achs Ball"
"556S099WT";"Achs Ball"
"556S104BL";"Achs Ball"
"556S104OR";"Achs Ball"
"556S104SI";"Achs Ball"
"556S104SW";"Achs Ball"
"556S104TI";"Achs Ball"
"556S104WT";"Achs Ball"
"556S127BL";"Achs Ball"
"556S127OR";"Achs Ball"
"556S127RT";"Achs Ball"
"556S127SI";"Achs Ball"
"556S127SW";"Achs Ball"
"556S127TI";"Achs Ball"
"556S127WT";"Achs Ball"
"556S135BL";"Achs Ball"
"556S135GR";"Achs Ball"
"556S135OR";"Achs Ball"
"556S135RT";"Achs Ball"
"556S135SI";"Achs Ball"
"556S135SW";"Achs Ball"
"556S135TI";"Achs Ball"
"556S135WT";"Achs Ball"
"556S138BL";"Achs Ball"
"556S138OR";"Achs Ball"
"556S138RT";"Achs Ball"
"556S138SI";"Achs Ball"
"556S138SW";"Achs Ball"
"556S138TI";"Achs Ball"
"556S138WT";"Achs Ball"
"556T037BL";"Achs Ball"
"556T037OR";"Achs Ball"
"556T037RT";"Achs Ball"
"556T037SI";"Achs Ball"
"556T037SR";"Achs Ball"
"556T037SW";"Achs Ball"
"556T037TI";"Achs Ball"
"556T037WT";"Achs Ball"
"556T047BL";"Achs Ball"
"556T047OR";"Achs Ball"
"556T047RT";"Achs Ball"
"556T047SI";"Achs Ball"
"556T047SW";"Achs Ball"
"556T047TI";"Achs Ball"
"556T047WT";"Achs Ball"
"556Y088BL";"Achs Ball"
"556Y088OR";"Achs Ball"
"556Y088RT";"Achs Ball"
"556Y088SI";"Achs Ball"
"556Y088SW";"Achs Ball"
"556Y088TI";"Achs Ball"
"556Y088WT";"Achs Ball"
"556Y129BL";"Achs Ball"
"556Y129GO";"Achs Ball"
"556Y129OR";"Achs Ball"
"556Y129RT";"Achs Ball"
"556Y129SI";"Achs Ball"
"556Y129SW";"Achs Ball"
"556Y129TI";"Achs Ball"
"556Y129WT";"Achs Ball"
"556Y139BL";"Achs Ball"
"556Y139OR";"Achs Ball"
"556Y139RT";"Achs Ball"
"556Y139SI";"Achs Ball"
"556Y139TI";"Achs Ball"
"556Y139WT";"Achs Ball"
"556Y140BL";"Achs Ball"
"556Y140GE";"Achs Ball"
"556Y140GO";"Achs Ball"
"556Y140GR";"Achs Ball"
"556Y140RT";"Achs Ball"
"556Y140SR";"Achs Ball"
"556Y140TI";"Achs Ball"
"556Y140WT";"Achs Ball"
"556Y146BL";"Achs Ball"
"556Y146GE";"Achs Ball"
"556Y146GO";"Achs Ball"
"556Y146GR";"Achs Ball"
"556Y146OR";"Achs Ball"
"556Y146RT";"Achs Ball"
"556Y146SI";"Achs Ball"
"556Y146SR";"Achs Ball"
"556Y146SW";"Achs Ball"
"556Y146TI";"Achs Ball"
"556Y146WT";"Achs Ball"
"558-AP1";"B-Kugel oder C-Kugel"
"558-AP2";"B-Kugel oder C-Kugel"
"558-AP3";"B-Kugel oder C-Kugel"
"558-AP4";"B-Kugel oder C-Kugel"
"558-AQ1";"B-Kugel oder C-Kugel"
"558-AQ2";"B-Kugel oder C-Kugel"
"558-AQ3";"B-Kugel oder C-Kugel"
"558-AQ4";"B-Kugel oder C-Kugel"
"558-AQ5";"B-Kugel oder C-Kugel"
"558-AQ6";"B-Kugel oder C-Kugel"
"558-B01";"B-Kugel (1 Zoll)"
"558-B02";"B-Kugel (1 Zoll)"
"558-B03";"B-Kugel (1 Zoll)"
"558-B04";"B-Kugel (1 Zoll)"
"558-B05";"B-Kugel (1 Zoll)"
"558-B06";"B-Kugel (1 Zoll)"
"558-B07";"B-Kugel (1 Zoll)"
"558-B08";"B-Kugel (1 Zoll)"
"558-B09";"B-Kugel (1 Zoll)"
"558-B10";"B-Kugel (1 Zoll)"
"558-B11";"B-Kugel (1 Zoll)"
"558-B12";"C-Kugel (1,5 Zoll)"
"558-B13";"B-Kugel (1 Zoll)"
"558-B14";"B-Kugel (1 Zoll)"
"558-B15";"B-Kugel (1 Zoll)"
"558-B16";"B-Kugel (1 Zoll)"
"558-B17";"B-Kugel (1 Zoll)"
"558-B18";"B-Kugel (1 Zoll)"
"558-B19";"B-Kugel (1 Zoll)"
"558-B20";"B-Kugel (1 Zoll)"
"558-B21";"B-Kugel (1 Zoll)"
"558-B22";"B-Kugel (1 Zoll)"
"558-B23";"B-Kugel (1 Zoll)"
"558-B24";"B-Kugel (1 Zoll)"
"558-B25";"B-Kugel (1 Zoll)"
"558-B26";"B-Kugel (1 Zoll)"
"558-B27";"B-Kugel (1 Zoll)"
"558-B28";"B-Kugel (1 Zoll)"
"558-B29";"B-Kugel (1 Zoll)"
"558-B30";"B-Kugel (1 Zoll)"
"558-B31";"B-Kugel (1 Zoll)"
"558-B32";"B-Kugel (1 Zoll)"
"558-B33";"B-Kugel (1 Zoll)"
"558-B34";"B-Kugel (1 Zoll)"
"558-B35";"B-Kugel (1 Zoll)"
"558-C01";"C-Kugel (1,5 Zoll)"
"558-C02";"C-Kugel (1,5 Zoll)"
"558-C03";"C-Kugel (1,5 Zoll)"
"558-C04";"C-Kugel (1,5 Zoll)"
"558-C05";"C-Kugel (1,5 Zoll)"
"558-DEL1";"B-Kugel oder C-Kugel"
"558-DEL2";"B-Kugel oder C-Kugel"
"558-GA12";"B-Kugel oder C-Kugel"
"558-GA21";"B-Kugel oder C-Kugel"
"558-GA25";"B-Kugel oder C-Kugel"
"558-GA31";"B-Kugel oder C-Kugel"
"558-GA40";"B-Kugel oder C-Kugel"
"558-GA41";"B-Kugel oder C-Kugel"
"558-GA43";"B-Kugel oder C-Kugel"
"558-GA46";"B-Kugel oder C-Kugel"
"558-GA47";"B-Kugel oder C-Kugel"
"558-GA57";"B-Kugel oder C-Kugel"
"558-GA62";"B-Kugel (1 Zoll)"
"558-GA63";"B-Kugel (1 Zoll)"
"558-GA64";"B-Kugel (1 Zoll)"
"558-GA65";"B-Kugel (1 Zoll)"
"558-GA66";"B-Kugel oder C-Kugel"
"558-GA67";"B-Kugel oder C-Kugel"
"558-GA70";"B-Kugel oder C-Kugel"
"558-GA71";"B-Kugel oder C-Kugel"
"558-GA72";"B-Kugel oder C-Kugel"
"558-GA73";"B-Kugel oder C-Kugel"
"558-GDS07";"B-Kugel (1 Zoll)"
"558-GDS08";"B-Kugel (1 Zoll)"
"558-GDS09";"B-Kugel (1 Zoll)"
"558-GDS12";"B-Kugel (1 Zoll)"
"558-GH1";"B-Kugel (1 Zoll)"
"558-GH2";"B-Kugel (1 Zoll)"
"558-GH3";"B-Kugel (1 Zoll)"
"558-GH4";"B-Kugel (1 Zoll)"
"558-GH5";"B-Kugel (1 Zoll)"
"558-GH6";"B-Kugel (1 Zoll)"
"558-GH7";"B-Kugel (1 Zoll)"
"558-GH8";"B-Kugel (1 Zoll)"
"558-GOP01";"B-Kugel (1 Zoll)"
"558-GOP02";"B-Kugel (1 Zoll)"
"558-GOP03";"B-Kugel (1 Zoll)"
"558-GOP04";"B-Kugel (1 Zoll)"
"558-GOP05";"B-Kugel (1 Zoll)"
"558-GOP06";"B-Kugel (1 Zoll)"
"558-GOP07";"B-Kugel (1 Zoll)"
"558-GOP08";"B-Kugel (1 Zoll)"
"558-GOP09";"B-Kugel (1 Zoll)"
"558-GOP10";"B-Kugel (1 Zoll)"
"558-GOP11";"B-Kugel (1 Zoll)"
"558-GOP12";"B-Kugel (1 Zoll)"
"558-GOP13";"B-Kugel (1 Zoll)"
"558-K01";"B-Kugel (1 Zoll)"
"558-K02";"B-Kugel (1 Zoll)"
"558-K03";"B-Kugel (1 Zoll)"
"558-K05";"B-Kugel (1 Zoll)"
"558-K06";"B-Kugel (1 Zoll)"
"558-K07";"B-Kugel (1 Zoll)"
"558-K08";"B-Kugel (1 Zoll)"
"558-K09";"C-Kugel (1,5 Zoll)"
"558-K10";"C-Kugel (1,5 Zoll)"
"558-K11";"C-Kugel (1,5 Zoll)"
"558-K12";"C-Kugel (1,5 Zoll)"
"558-K13";"C-Kugel (1,5 Zoll)"
"558-K14";"B-Kugel (1 Zoll)"
"558-K15";"B-Kugel (1 Zoll)"
"558-K16";"B-Kugel (1 Zoll)"
"558-K17";"B-Kugel (1 Zoll)"
"558-K18";"B-Kugel (1 Zoll)"
"558-K19";"C-Kugel (1,5 Zoll)"
"558-KH1";"B-Kugel (1 Zoll)"
"558-KH2";"B-Kugel (1 Zoll)"
"558-KH4";"B-Kugel (1 Zoll)"
"558-LU01";"B-Kugel oder C-Kugel"
"558-MA09";"B-Kugel oder C-Kugel"
"558-MA10";"B-Kugel oder C-Kugel"
"558-MA12";"B-Kugel (1 Zoll)"
"558-MA14";"B-Kugel oder C-Kugel"
"558-MA15";"B-Kugel oder C-Kugel"
"558-OT2";"B-Kugel (1 Zoll)"
"558-PIN01";"B-Kugel (1 Zoll)"
"558-PIN02";"C-Kugel (1,5 Zoll)"
"558-PIN03";"B-Kugel (1 Zoll)"
"558-PIN04";"C-Kugel (1,5 Zoll)"
"558-PIN05";"B-Kugel (1 Zoll)"
"558-PIN06";"C-Kugel (1,5 Zoll)"
"558-PIN07";"B-Kugel (1 Zoll)"
"558-PIN08";"C-Kugel (1,5 Zoll)"
"558-PIN09";"B-Kugel (1 Zoll)"
"558-PIN10";"B-Kugel (1 Zoll)"
"558-PP1";"B-Kugel (1 Zoll)"
"558-PP2";"B-Kugel (1 Zoll)"
"558-PP3";"B-Kugel (1 Zoll)"
"558-S01";"B-Kugel (1 Zoll)"
"558-SAM14";"B-Kugel (1 Zoll)"
"558-SAM22";"B-Kugel (1 Zoll)"
"558-SAM25";"B-Kugel (1 Zoll)"
"558-SAM28";"B-Kugel (1 Zoll)"
"558-SAM31";"B-Kugel (1 Zoll)"
"558-SL1";"B-Kugel (1 Zoll)"
"558-SL2";"B-Kugel (1 Zoll)"
"558-SL3";"B-Kugel (1 Zoll)"
"558-SL4";"B-Kugel (1 Zoll)"
"558-SP2";"B-Kugel oder C-Kugel"
"558-SP3";"B-Kugel oder C-Kugel"
"558-SP4";"B-Kugel oder C-Kugel"
"558-TC01";"B-Kugel (1 Zoll)"
"558-TC02";"B-Kugel (1 Zoll)"
"558-TC03";"B-Kugel (1 Zoll)"
"558-TC04";"B-Kugel (1 Zoll)"
"558-TC05";"B-Kugel (1 Zoll)"
"558-TC06";"B-Kugel (1 Zoll)"
"558-TC07";"B-Kugel (1 Zoll)"
"558-TC08";"B-Kugel (1 Zoll)"
"558-TC09";"C-Kugel (1,5 Zoll)"
"558-TC10";"B-Kugel (1 Zoll)"
"558-TC11";"C-Kugel (1,5 Zoll)"
"558-TC12";"B-Kugel (1 Zoll)"
"558-TC13";"B-Kugel (1 Zoll)"
"558-TC14";"B-Kugel (1 Zoll)"
"558-TC15";"B-Kugel (1 Zoll)"
"558-TC16";"B-Kugel (1 Zoll)"
"558-TC17";"B-Kugel (1 Zoll)"
"558-TO10";"B-Kugel oder C-Kugel"
"558-TO11";"B-Kugel oder C-Kugel"
"558-UN3";"B-Kugel oder C-Kugel"
"558-UN4";"B-Kugel oder C-Kugel"
"558-UN5";"B-Kugel (1 Zoll)"
"558-UN6";"B-Kugel (1 Zoll)"
"558-UN8";"B-Kugel (1 Zoll)"
"558-UN9";"B-Kugel (1 Zoll)"
"558-VA01";"B-Kugel (1 Zoll)"
"558-VA02";"B-Kugel (1 Zoll)"
"558-VA03";"B-Kugel (1 Zoll)"
"558-VA04";"C-Kugel (1,5 Zoll)"
"558-VA05";"B-Kugel (1 Zoll)"
"558-VA06";"C-Kugel (1,5 Zoll)"
"558-VA07";"C-Kugel (1,5 Zoll)"
"558-VA08";"B-Kugel (1 Zoll)"
"558-VA09";"B-Kugel (1 Zoll)"
"558-VA10";"B-Kugel (1 Zoll)"
"558-VA11";"B-Kugel (1 Zoll)"
"558-VA12";"B-Kugel (1 Zoll)"
"558-X01";"B-Kugel (1 Zoll)"
"558-X02";"B-Kugel (1 Zoll)"
"558-X03";"B-Kugel (1 Zoll)"
"558-X04";"B-Kugel (1 Zoll)"
"558-X05";"B-Kugel (1 Zoll)"
"558-X06";"B-Kugel (1 Zoll)"
"558-X07";"B-Kugel (1 Zoll)"
"558-X08";"B-Kugel (1 Zoll)"
"558-X09";"B-Kugel (1 Zoll)"
"558-X10";"B-Kugel (1 Zoll)"
"558-X11";"B-Kugel (1 Zoll)"
"558-X12";"B-Kugel (1 Zoll)"
"558-X13";"B-Kugel (1 Zoll)"
"558-X14";"B-Kugel (1 Zoll)"
"558-X15";"B-Kugel (1 Zoll)"
"558-X16";"B-Kugel (1 Zoll)"
"558-X17";"B-Kugel (1 Zoll)"
"701-001";"links und rechts"
"701-005";"links und rechts"
"HH34-601";"Fahrer"
"HH34-650";"Fahrer"
"HH491-3108";"Fahrer"
"HH491-3109";"Fahrer"
"HH491-609";"Fahrer"
"HH492-607";"Fahrer"
"HH493-3002";"Fahrer"
"HH493-605";"Fahrer"
"HH493-606";"Fahrer"
"HH493-607";"Fahrer"
"HH496-3305";"Fahrer"
"HH672-016";"Tacho"
"HH73-0150A";"Fahrer"
"HH73-119";"Sozius"
"HH731-373";"Sozius"
"HH731-380";"Fahrer"
"HH731-381";"Fahrer"
"HH731-384";"Sozius"
"HH731-385";"Sozius"
"HH731-390";"Fahrer"
"HH731-392";"Sozius"
"HH731-393";"Sozius"
"HH731-600";"Fahrer"
"HH731-602";"Fahrer"
"HH731-606";"Sozius"
"HH732-323";"Sozius"
"HH732-324";"Sozius"
"HH732-325";"Sozius"
"HH732-380";"Fahrer"
"HH732-381";"Fahrer"
"HH732-383";"Sozius"
"HH732-391";"Sozius"
"HH732-600";"Fahrer"
"HH732-606";"Sozius"
"HH73-2642";"Trittbretter"
"HH732-701A";"Sozius"
"HH732-702A";"Sozius"
"HH73-2761";"Sozius"
"HH733-108A";"Fahrer"
"HH733-385";"Fahrer"
"HH733-387";"Fahrer"
"HH733-388";"Sozius"
"HH733-392";"Fahrer"
"HH733-393";"Fahrer"
"HH733-395";"Sozius"
"HH733-450";"Sozius"
"HH733-604";"Fahrer"
"HH733-605";"Sozius"
"HH733-606";"Sozius"
"HH733-607";"Sozius"
"HH734-362";"Sozius"
"HH734-381";"Fahrer"
"HH734-382";"Sozius"
"HH734-390";"Sozius"
"HH73-492";"Fahrer"
"HH73-493";"Fahrer"
"HH73-496";"Sozius"
"HH73-497";"Sozius"
"HH73-498";"Fahrer"
"HH735-300";"Fahrer"
"HH735-303";"Fahrer"
"HH737-600";"Fahrer"
