"sku";"material"
"HB81065050012";"Aluminium"
"HB81065060012";"Aluminium"
"HB81065070012";"Aluminium"
"HB81065120012";"Aluminium"
"HB81065130012";"Aluminium"
"HB81065140012";"Aluminium"
"HB81065190012";"Aluminium"
"HB81065200012";"Aluminium"
"HB8106650009";"Aluminium"
"HB8106670009";"Aluminium"
"HB8106690012";"Aluminium"
"HB8106710009";"Aluminium"
"HB81075130012";"Aluminium"
"HB81075190009";"Aluminium"
"HB81075240009";"Aluminium"
"HB81075330009";"Aluminium"
"HB81075470012";"Aluminium"
"HB81075560012";"Aluminium"
"HB81075630012";"Aluminium"
"HB81095120012";"Aluminium gebürstet"
"HB8109520012";"Aluminium"
"HB81095210012";"Aluminium"
"HB81095220012";"Aluminium"
"HB8109740012";"Aluminium gebürstet"
"HB8109940012";"Aluminium gebürstet"
"HB81135440012";"Aluminium"
"HH01-303";"Kunststoff"
"HH01-310";"Kunststoff"
"HH01-311";"Kunststoff"
"HH01-312";"Kunststoff"
"HH01-318";"Kunststoff"
"HH01-319";"Kunststoff"
"HH01-320";"Kunststoff"
"HH01-321";"Kunststoff"
"HH01-324";"Kunststoff"
"HH01-3401";"Stahl"
"HH01-560";"Kunststoff"
"HH01-561";"Kunststoff"
"HH02-074";"Aluminium"
"HH02-078";"Metall"
"HH02-110";"Kunststoff"
"HH02-240";"Nylon"
"HH02-241";"Nylon"
"HH02-2600";"Leder"
"HH02-2606";"Leder"
"HH02-2610";"Leder"
"HH02-2611";"Leder"
"HH02-2612";"Leder"
"HH02-2613";"Leder"
"HH02-2616";"Leder"
"HH02-2620";"Leder"
"HH02-2626";"Leder"
"HH02-2630";"Leder"
"HH02-2650";"Leder"
"HH02-2651";"Leder"
"HH02-2652";"Leder"
"HH02-2653";"Leder"
"HH02-2661";"Leder"
"HH02-2665";"Leder"
"HH02-2695";"Leder"
"HH02-2802";"Leder"
"HH02-2804";"Leder"
"HH02-313";"Leder"
"HH02-630";"Textil"
"HH02-631";"Textil"
"HH02-633";"Textil"
"HH02-906";"Kunststoff"
"HH02-908";"Kunststoff"
"HH02-913";"Kunststoff"
"HH02-914";"Kunststoff"
"HH02-950";"Kunststoff"
"HH02-951";"Kunststoff"
"HH05-324";"Metall"
"HH412-150";"Stahl"
"HH45-006";"Chrom / Gummi"
"HH45-0111";"Chrom / Gummi"
"HH45-0112";"Chrom / Gummi"
"HH45-012";"Chrom / Moosgummi"
"HH45-0124";"Chrom / Leder"
"HH45-0130";"Chrom / Gummi"
"HH45-0135";"Chrom / Gummi"
"HH45-0136";"Chrom / Gummi"
"HH45-0142";"Chrom / Gummi"
"HH45-0143";"Chrom / Gummi"
"HH45-0144";"Moosgummi"
"HH45-0161";"Chrom / Gummi"
"HH45-0163";"Chrom / Gummi"
"HH45-0165";"Chrom / Gummi"
"HH45-0169";"Metall"
"HH45-0180";"Stahl"
"HH45-0201";"Aluminium"
"HH45-0201B";"Aluminium"
"HH45-0299";"Aluminium"
"HH491-3000";"Stahl"
"HH491-3001";"Stahl"
"HH491-3002";"Stahl"
"HH491-3003";"Stahl"
"HH491-3004";"Stahl"
"HH491-3005";"Stahl"
"HH491-3006";"Stahl"
"HH491-3007";"Stahl"
"HH491-3008";"Stahl"
"HH491-3009";"Stahl"
"HH491-3010";"Stahl"
"HH491-3011";"Stahl"
"HH491-3012";"Stahl"
"HH491-3013";"Stahl"
"HH491-3013B";"Stahl"
"HH491-3014";"Stahl"
"HH491-3014B";"Stahl"
"HH491-3015";"Stahl"
"HH491-3100";"Stahl"
"HH491-3101";"Stahl"
"HH491-3102";"Stahl"
"HH491-3103";"Stahl"
"HH491-3104";"Stahl"
"HH491-3105";"Stahl"
"HH491-3106";"Stahl"
"HH491-3107";"Stahl"
"HH491-3108";"Stahl poliert"
"HH491-3109";"Stahl poliert"
"HH491-3110";"Stahl"
"HH491-3111";"Stahl"
"HH491-3112";"Stahl"
"HH491-3113";"Stahl"
"HH491-3113B";"Stahl"
"HH491-3114";"Stahl"
"HH491-3114B";"Stahl"
"HH491-3115";"Stahl"
"HH491-3117";"Stahl"
"HH491-3200";"Stahl"
"HH491-3201";"Stahl"
"HH491-3202";"Stahl"
"HH491-3203";"Stahl"
"HH491-3204";"Stahl"
"HH491-3205";"Stahl"
"HH491-3206";"Stahl"
"HH491-3207";"Stahl"
"HH491-3208";"Stahl"
"HH491-3209";"Stahl"
"HH491-3210";"Stahl"
"HH491-3211";"Stahl"
"HH491-3212";"Stahl"
"HH491-3213";"Stahl"
"HH491-3213B";"Stahl"
"HH491-3214";"Stahl"
"HH491-3214B";"Stahl"
"HH491-3215";"Stahl"
"HH491-3216";"Stahl"
"HH491-3300";"Stahl"
"HH491-3301";"Stahl"
"HH491-3302";"Stahl"
"HH491-3303";"Stahl"
"HH491-3304";"Stahl"
"HH491-3305";"Stahl"
"HH491-3306";"Stahl"
"HH491-3307";"Stahl"
"HH491-3308";"Stahl"
"HH491-3309";"Stahl"
"HH491-3310";"Stahl"
"HH491-3311";"Stahl"
"HH491-3312";"Stahl"
"HH491-3313";"Stahl"
"HH491-3313B";"Stahl"
"HH491-3314";"Stahl"
"HH491-3314B";"Stahl"
"HH491-3315";"Stahl"
"HH491-3316";"Stahl"
"HH491-609";"Stahl poliert"
"HH492-3002";"Stahl"
"HH492-3003";"Stahl"
"HH492-3004";"Stahl"
"HH492-3005";"Stahl"
"HH492-3102";"Stahl"
"HH492-3103";"Stahl"
"HH492-3104";"Stahl"
"HH492-3105";"Stahl"
"HH492-3202";"Stahl"
"HH492-3203";"Stahl"
"HH492-3204";"Stahl"
"HH492-3205";"Stahl"
"HH492-3206B";"Stahl"
"HH492-3207";"Stahl"
"HH492-3208";"Stahl"
"HH492-3302";"Stahl"
"HH492-3303";"Stahl"
"HH492-3304";"Stahl"
"HH492-3305";"Stahl"
"HH492-3306B";"Stahl"
"HH492-3307";"Stahl"
"HH492-3308";"Stahl"
"HH492-607";"Stahl poliert"
"HH493-3002";"Stahl"
"HH493-3003";"Stahl"
"HH493-3004";"Stahl"
"HH493-3005";"Stahl"
"HH493-3006";"Stahl"
"HH493-3007";"Stahl"
"HH493-3008";"Stahl"
"HH493-3010";"Stahl"
"HH493-3010B";"Stahl"
"HH493-3011";"Stahl"
"HH493-3011B";"Stahl"
"HH493-3012";"Stahl"
"HH493-3102";"Stahl"
"HH493-3103";"Stahl"
"HH493-3104";"Stahl"
"HH493-3105";"Stahl"
"HH493-3106";"Stahl"
"HH493-3107";"Stahl"
"HH493-3108";"Stahl"
"HH493-3110";"Stahl"
"HH493-3110B";"Stahl"
"HH493-3111";"Stahl"
"HH493-3111B";"Stahl"
"HH493-3112";"Stahl"
"HH493-3200";"Stahl"
"HH493-3202";"Stahl"
"HH493-3203";"Stahl"
"HH493-3204";"Stahl"
"HH493-3205";"Stahl"
"HH493-3206";"Stahl"
"HH493-3207";"Stahl"
"HH493-3208";"Stahl"
"HH493-3210";"Stahl"
"HH493-3210B";"Stahl"
"HH493-3211";"Stahl"
"HH493-3211B";"Stahl"
"HH493-3212";"Stahl"
"HH493-3300";"Stahl"
"HH493-3302";"Stahl"
"HH493-3303";"Stahl"
"HH493-3304";"Stahl"
"HH493-3305";"Stahl"
"HH493-3306";"Stahl"
"HH493-3307";"Stahl"
"HH493-3308";"Stahl"
"HH493-3310";"Stahl"
"HH493-3310B";"Stahl"
"HH493-3311";"Stahl"
"HH493-3311B";"Stahl"
"HH493-3312";"Stahl"
"HH493-605";"Stahl poliert"
"HH493-606";"Stahl poliert"
"HH493-607";"Stahl poliert"
"HH494-3000";"Stahl"
"HH494-3004";"Stahl"
"HH494-3100";"Stahl"
"HH494-3101";"Stahl"
"HH494-3103";"Stahl"
"HH494-3104";"Stahl"
"HH494-3200";"Stahl"
"HH494-3201";"Stahl"
"HH494-3202";"Stahl"
"HH494-3203";"Stahl"
"HH494-3204";"Stahl"
"HH494-3300";"Stahl"
"HH494-3301";"Stahl"
"HH494-3302";"Stahl"
"HH494-3303";"Stahl"
"HH494-3304";"Stahl"
"HH496-3001";"Stahl"
"HH496-3002";"Stahl"
"HH496-3003";"Stahl"
"HH496-3003B";"Stahl"
"HH496-3003BK";"Stahl"
"HH496-3004";"Stahl"
"HH496-3004B";"Stahl"
"HH496-3004BK";"Stahl"
"HH496-3101";"Stahl"
"HH496-3102";"Stahl"
"HH496-3103";"Stahl"
"HH496-3103B";"Stahl"
"HH496-3103BK";"Stahl"
"HH496-3104";"Stahl"
"HH496-3104B";"Stahl"
"HH496-3104BK";"Stahl"
"HH496-3201";"Stahl"
"HH496-3202";"Stahl"
"HH496-3203";"Stahl"
"HH496-3203B";"Stahl"
"HH496-3203BK";"Stahl"
"HH496-3204";"Stahl"
"HH496-3204B";"Stahl"
"HH496-3204BK";"Stahl"
"HH496-3301";"Stahl"
"HH496-3302";"Stahl"
"HH496-3303";"Stahl"
"HH496-3303B";"Stahl"
"HH496-3303BK";"Stahl"
"HH496-3304";"Stahl"
"HH496-3304B";"Stahl"
"HH496-3304BK";"Stahl"
"HH496-3305";"Stahl"
"HH497-3001";"Stahl"
"HH497-3002";"Stahl"
"HH497-3003";"Stahl"
"HH497-3003BK";"Stahl"
"HH497-3004";"Stahl"
"HH497-3004BK";"Stahl"
"HH497-3005";"Stahl"
"HH497-3005BK";"Stahl"
"HH497-3006";"Stahl"
"HH497-3006BK";"Stahl"
"HH497-3007";"Stahl"
"HH497-3007BK";"Stahl"
"HH497-3101";"Stahl"
"HH497-3102";"Stahl"
"HH497-3103";"Stahl"
"HH497-3103BK";"Stahl"
"HH497-3104";"Stahl"
"HH497-3104BK";"Stahl"
"HH497-3105";"Stahl"
"HH497-3105BK";"Stahl"
"HH497-3106";"Stahl"
"HH497-3106BK";"Stahl"
"HH497-3107";"Stahl"
"HH497-3107BK";"Stahl"
"HH497-3201";"Stahl"
"HH497-3203";"Stahl"
"HH497-3203BK";"Stahl"
"HH497-3204";"Stahl"
"HH497-3204BK";"Stahl"
"HH497-3205";"Stahl"
"HH497-3205BK";"Stahl"
"HH497-3206";"Stahl"
"HH497-3206BK";"Stahl"
"HH497-3207";"Stahl"
"HH497-3207BK";"Stahl"
"HH497-3208";"Stahl"
"HH497-3301";"Stahl"
"HH497-3302";"Stahl"
"HH497-3303";"Stahl"
"HH497-3303BK";"Stahl"
"HH497-3304";"Stahl"
"HH497-3304BK";"Stahl"
"HH497-3305";"Stahl"
"HH497-3305BK";"Stahl"
"HH497-3306";"Stahl"
"HH497-3306BK";"Stahl"
"HH497-3307";"Stahl"
"HH497-3307BK";"Stahl"
"HH497-3308";"Stahl"
"HH499-3301";"Stahl"
"HH499-3301B";"Stahl"
"HH499-3301BK";"Stahl"
"HH499-3302";"Stahl"
"HH499-3302B";"Stahl"
"HH499-3302BK";"Stahl"
"HH51-39952";"Kunststoff"
"HH521-1031A";"Stahl"
"HH521-1033";"Stahl"
"HH521-1033A";"Stahl"
"HH521-1035";"Stahl"
"HH521-1035A";"Stahl"
"HH521-1036";"Stahl"
"HH521-1036A";"Stahl"
"HH521-1037";"Stahl"
"HH521-1037A";"Stahl"
"HH521-1044";"Stahl"
"HH521-1044A";"Stahl"
"HH521-1046";"Stahl"
"HH521-1046A";"Stahl"
"HH521-1046B";"Stahl"
"HH521-1048";"Stahl"
"HH521-1048A";"Stahl"
"HH521-1049";"Stahl"
"HH521-1049A";"Stahl"
"HH521-1049AB";"Stahl"
"HH521-1049B";"Stahl"
"HH521-3033";"Stahl"
"HH521-3035";"Stahl"
"HH521-3036";"Stahl"
"HH521-3037";"Stahl"
"HH521-3046";"Stahl"
"HH521-3046B";"Stahl"
"HH521-3048";"Stahl"
"HH521-3049";"Stahl"
"HH521-3049B";"Stahl"
"HH521-4031";"Stahl"
"HH521-4033";"Stahl"
"HH521-4035";"Stahl"
"HH521-4037";"Stahl"
"HH521-4044";"Stahl"
"HH521-4046";"Stahl"
"HH521-4046B";"Stahl"
"HH521-4048";"Stahl"
"HH521-4049";"Stahl"
"HH521-4049B";"Stahl"
"HH521-6031";"Stahl"
"HH521-6033";"Stahl"
"HH521-6035";"Stahl"
"HH521-6036";"Stahl"
"HH521-6037";"Stahl"
"HH521-6044";"Stahl"
"HH521-6046";"Stahl"
"HH521-6046B";"Stahl"
"HH521-6048";"Stahl"
"HH521-6049";"Stahl"
"HH521-6049B";"Stahl"
"HH521-6131";"Stahl"
"HH521-6133";"Stahl"
"HH521-6136";"Stahl"
"HH521-6144";"Stahl"
"HH521-6146";"Stahl"
"HH521-6146B";"Stahl"
"HH521-6149";"Stahl"
"HH521-6149B";"Stahl"
"HH521-6231";"Stahl"
"HH521-6233";"Stahl"
"HH521-6235";"Stahl"
"HH521-6236";"Stahl"
"HH521-6237";"Stahl"
"HH521-6237B";"Stahl"
"HH521-6244";"Stahl"
"HH521-6246";"Stahl"
"HH521-6246B";"Stahl"
"HH521-6248";"Stahl"
"HH521-6249";"Stahl"
"HH521-6249B";"Stahl"
"HH521-6331";"Stahl"
"HH521-6333";"Stahl"
"HH521-6335";"Stahl"
"HH521-6336";"Stahl"
"HH521-6337";"Stahl"
"HH521-6344";"Stahl"
"HH521-6346";"Stahl"
"HH521-6346B";"Stahl"
"HH521-6348";"Stahl"
"HH521-6349";"Stahl"
"HH521-6349B";"Stahl"
"HH522-1033";"Stahl"
"HH522-1033A";"Stahl"
"HH522-1034B";"Stahl"
"HH522-1035";"Stahl"
"HH522-1035A";"Stahl"
"HH522-1035AB";"Stahl"
"HH522-1035B";"Stahl"
"HH522-1036";"Stahl"
"HH522-1036A";"Stahl"
"HH522-1038";"Stahl"
"HH522-1038A";"Stahl"
"HH522-1039";"Stahl"
"HH522-1039A";"Stahl"
"HH522-1040";"Stahl"
"HH522-1040A";"Stahl"
"HH522-1041";"Stahl"
"HH522-1047A";"Stahl"
"HH522-1048";"Stahl"
"HH522-1048A";"Stahl"
"HH522-1049";"Stahl"
"HH522-1049A";"Stahl"
"HH522-1049AB";"Stahl"
"HH522-1049B";"Stahl"
"HH522-2040";"Stahl"
"HH522-3033";"Stahl"
"HH522-3034B";"Stahl"
"HH522-3035";"Stahl"
"HH522-3035B";"Stahl"
"HH522-3036";"Stahl"
"HH522-3039";"Stahl"
"HH522-3048";"Stahl"
"HH522-3049B";"Stahl"
"HH522-4033";"Stahl"
"HH522-4034B";"Stahl"
"HH522-4035";"Stahl"
"HH522-4035B";"Stahl"
"HH522-4036";"Stahl"
"HH522-4038";"Stahl"
"HH522-4039";"Stahl"
"HH522-4040";"Stahl"
"HH522-4047";"Stahl"
"HH522-4048";"Stahl"
"HH522-4049";"Stahl"
"HH522-4049B";"Stahl"
"HH522-6033";"Stahl"
"HH522-6034B";"Stahl"
"HH522-6035";"Stahl"
"HH522-6035B";"Stahl"
"HH522-6036";"Stahl"
"HH522-6038";"Stahl"
"HH522-6039";"Stahl"
"HH522-6040";"Stahl"
"HH522-6047";"Stahl"
"HH522-6048";"Stahl"
"HH522-6049";"Stahl"
"HH522-6049B";"Stahl"
"HH522-6133";"Stahl"
"HH522-6134B";"Stahl"
"HH522-6135";"Stahl"
"HH522-6135B";"Stahl"
"HH522-6136";"Stahl"
"HH522-6138";"Stahl"
"HH522-6139";"Stahl"
"HH522-6140";"Stahl"
"HH522-6147";"Stahl"
"HH522-6148";"Stahl"
"HH522-6149";"Stahl"
"HH522-6149B";"Stahl"
"HH522-6233";"Stahl"
"HH522-6234B";"Stahl"
"HH522-6235";"Stahl"
"HH522-6235B";"Stahl"
"HH522-6236";"Stahl"
"HH522-6238";"Stahl"
"HH522-6239";"Stahl"
"HH522-6240";"Stahl"
"HH522-6247";"Stahl"
"HH522-6248";"Stahl"
"HH522-6249";"Stahl"
"HH522-6249B";"Stahl"
"HH522-6333";"Stahl"
"HH522-6334B";"Stahl"
"HH522-6335";"Stahl"
"HH522-6335B";"Stahl"
"HH522-6336";"Stahl"
"HH522-6338";"Stahl"
"HH522-6339";"Stahl"
"HH522-6340";"Stahl"
"HH522-6347";"Stahl"
"HH522-6348";"Stahl"
"HH522-6349";"Stahl"
"HH522-6349B";"Stahl"
"HH523-1036";"Stahl"
"HH523-1036A";"Stahl"
"HH523-1037";"Stahl"
"HH523-1037B";"Stahl"
"HH523-1038";"Stahl"
"HH523-1038A";"Stahl"
"HH523-1038AB";"Stahl"
"HH523-1038B";"Stahl"
"HH523-1040";"Stahl"
"HH523-1040A";"Stahl"
"HH523-1047";"Stahl"
"HH523-1047A";"Stahl"
"HH523-1048";"Stahl"
"HH523-1048A";"Stahl"
"HH523-1049";"Stahl"
"HH523-1049A";"Stahl"
"HH523-1068";"Stahl"
"HH523-1069";"Stahl"
"HH523-1070";"Stahl"
"HH523-3036";"Stahl"
"HH523-3037";"Stahl"
"HH523-3037B";"Stahl"
"HH523-3038B";"Stahl"
"HH523-3040";"Stahl"
"HH523-4036";"Stahl"
"HH523-4037";"Stahl"
"HH523-4037B";"Stahl"
"HH523-4038";"Stahl"
"HH523-4038B";"Stahl"
"HH523-4040";"Stahl"
"HH523-6036";"Stahl"
"HH523-6037";"Stahl"
"HH523-6037B";"Stahl"
"HH523-6038";"Stahl"
"HH523-6038B";"Stahl"
"HH523-6040";"Stahl"
"HH523-6136";"Stahl"
"HH523-6137";"Stahl"
"HH523-6137B";"Stahl"
"HH523-6138";"Stahl"
"HH523-6138B";"Stahl"
"HH523-6140";"Stahl"
"HH523-6236";"Stahl"
"HH523-6238";"Stahl"
"HH523-6238B";"Stahl"
"HH523-6240";"Stahl"
"HH523-6247";"Stahl"
"HH523-6336";"Stahl"
"HH523-6337";"Stahl"
"HH523-6337B";"Stahl"
"HH523-6338";"Stahl"
"HH523-6338B";"Stahl"
"HH523-6340";"Stahl"
"HH524-1016";"Stahl"
"HH524-1034";"Stahl"
"HH524-1034A";"Stahl"
"HH524-1035";"Stahl"
"HH524-1035A";"Stahl"
"HH524-1036";"Stahl"
"HH524-1036A";"Stahl"
"HH524-1038";"Stahl"
"HH524-1038A";"Stahl"
"HH524-1039";"Stahl"
"HH524-1039A";"Stahl"
"HH524-1039AB";"Stahl"
"HH524-1039B";"Stahl"
"HH524-1040B";"Stahl"
"HH524-1047";"Stahl"
"HH524-1047A";"Stahl"
"HH524-1047AB";"Stahl"
"HH524-1047B";"Stahl"
"HH524-1048";"Stahl"
"HH524-1048A";"Stahl"
"HH524-2035";"Stahl"
"HH524-3034";"Stahl"
"HH524-3035";"Stahl"
"HH524-3036";"Stahl"
"HH524-3038";"Stahl"
"HH524-3039";"Stahl"
"HH524-3039B";"Stahl"
"HH524-3040B";"Stahl"
"HH524-3047";"Stahl"
"HH524-3047B";"Stahl"
"HH524-3048";"Stahl"
"HH524-4034";"Stahl"
"HH524-4035";"Stahl"
"HH524-4038";"Stahl"
"HH524-4039";"Stahl"
"HH524-4039B";"Stahl"
"HH524-4040B";"Stahl"
"HH524-4047";"Stahl"
"HH524-4047B";"Stahl"
"HH524-4048";"Stahl"
"HH524-6034";"Stahl"
"HH524-6035";"Stahl"
"HH524-6036";"Stahl"
"HH524-6038";"Stahl"
"HH524-6039B";"Stahl"
"HH524-6040B";"Stahl"
"HH524-6047";"Stahl"
"HH524-6047B";"Stahl"
"HH524-6048";"Stahl"
"HH524-6134";"Stahl"
"HH524-6135";"Stahl"
"HH524-6136";"Stahl"
"HH524-6138";"Stahl"
"HH524-6139B";"Stahl"
"HH524-6140B";"Stahl"
"HH524-6147";"Stahl"
"HH524-6147B";"Stahl"
"HH524-6148";"Stahl"
"HH524-6234";"Stahl"
"HH524-6235";"Stahl"
"HH524-6236";"Stahl"
"HH524-6238";"Stahl"
"HH524-6239B";"Stahl"
"HH524-6240B";"Stahl"
"HH524-6247";"Stahl"
"HH524-6247B";"Stahl"
"HH524-6248";"Stahl"
"HH524-6334";"Stahl"
"HH524-6335";"Stahl"
"HH524-6336";"Stahl"
"HH524-6338";"Stahl"
"HH524-6339B";"Stahl"
"HH524-6340B";"Stahl"
"HH524-6347";"Stahl"
"HH524-6347B";"Stahl"
"HH524-6348";"Stahl"
"HH525-001";"Stahl"
"HH525-002";"Stahl"
"HH525-002B";"Stahl"
"HH525-0031";"Stahl"
"HH525-0031B";"Stahl"
"HH525-005";"Stahl"
"HH526-1030A";"Stahl"
"HH526-3030";"Stahl"
"HH526-4030";"Stahl"
"HH526-6030";"Stahl"
"HH526-6130";"Stahl"
"HH526-6230";"Stahl"
"HH526-6330";"Stahl"
"HH527-1040";"Stahl"
"HH527-1040A";"Stahl"
"HH527-1040AB";"Stahl"
"HH527-1040B";"Stahl"
"HH527-1042";"Stahl"
"HH527-1042A";"Stahl"
"HH527-1042AB";"Stahl"
"HH527-1042B";"Stahl"
"HH527-1043";"Stahl"
"HH527-1043A";"Stahl"
"HH527-1043AB";"Stahl"
"HH527-1043B";"Stahl"
"HH527-1044AB";"Stahl"
"HH527-1044B";"Stahl"
"HH527-1045";"Stahl"
"HH527-1045A";"Stahl"
"HH527-1045AB";"Stahl"
"HH527-1045B";"Stahl"
"HH527-1046";"Stahl"
"HH527-1046A";"Stahl"
"HH527-1046AB";"Stahl"
"HH527-1046B";"Stahl"
"HH527-1047A";"Stahl"
"HH527-1047AB";"Stahl"
"HH527-1047B";"Stahl"
"HH527-3045";"Stahl"
"HH527-3045B";"Stahl"
"HH527-3046";"Stahl"
"HH527-3046B";"Stahl"
"HH527-4040";"Stahl"
"HH527-4040B";"Stahl"
"HH527-4042";"Stahl"
"HH527-4042B";"Stahl"
"HH527-4043";"Stahl"
"HH527-4043B";"Stahl"
"HH527-4044B";"Stahl"
"HH52-750";"Stahl"
"HH527-6040";"Stahl"
"HH527-6040B";"Stahl"
"HH527-6042";"Stahl"
"HH527-6042B";"Stahl"
"HH527-6043";"Stahl"
"HH527-6043B";"Stahl"
"HH527-6044B";"Stahl"
"HH527-6046";"Stahl"
"HH527-6046B";"Stahl"
"HH527-6047B";"Stahl"
"HH527-6140";"Stahl"
"HH527-6140B";"Stahl"
"HH527-6142";"Stahl"
"HH527-6142B";"Stahl"
"HH527-6143";"Stahl"
"HH527-6143B";"Stahl"
"HH527-6144B";"Stahl"
"HH527-6146";"Stahl"
"HH527-6146B";"Stahl"
"HH527-6147B";"Stahl"
"HH527-6240";"Stahl"
"HH527-6240B";"Stahl"
"HH527-6242";"Stahl"
"HH527-6242B";"Stahl"
"HH527-6243";"Stahl"
"HH527-6243B";"Stahl"
"HH527-6244B";"Stahl"
"HH527-6246";"Stahl"
"HH527-6246B";"Stahl"
"HH527-6247B";"Stahl"
"HH527-6340";"Stahl"
"HH527-6340B";"Stahl"
"HH527-6342";"Stahl"
"HH527-6342B";"Stahl"
"HH527-6343";"Stahl"
"HH527-6343B";"Stahl"
"HH527-6344B";"Stahl"
"HH527-6346";"Stahl"
"HH527-6346B";"Stahl"
"HH527-6347B";"Stahl"
"HH528-1040";"Stahl"
"HH528-1040B";"Stahl"
"HH528-1041";"Stahl"
"HH528-1041A";"Stahl"
"HH528-1041AB";"Stahl"
"HH528-3040";"Stahl"
"HH528-3040B";"Stahl"
"HH528-4040";"Stahl"
"HH528-4041";"Stahl"
"HH528-4041B";"Stahl"
"HH528-6041";"Stahl"
"HH528-6041B";"Stahl"
"HH528-6141";"Stahl"
"HH528-6141B";"Stahl"
"HH528-6241";"Stahl"
"HH528-6241B";"Stahl"
"HH528-6341";"Stahl"
"HH528-6341B";"Stahl"
"HH52-9000";"Stahl"
"HH52-9000B";"Stahl"
"HH52-9100";"Stahl"
"HH529-1046";"Stahl"
"HH529-1046B";"Stahl"
"HH529-1049";"Stahl"
"HH52-9300";"Stahl"
"HH52-9310";"Stahl"
"HH52-9310B";"Stahl"
"HH52-9320";"Stahl"
"HH52-9320B";"Stahl"
"HH52-9410";"Stahl"
"HH52-9500B";"Stahl"
"HH52-9610A";"Stahl"
"HH52-9610AB";"Stahl"
"HH52-96201A";"Stahl"
"HH52-96201AB";"Stahl"
"HH52-96202A";"Stahl"
"HH52-96202AB";"Stahl"
"HH55-205";"Stahl"
"HH55-206";"Stahl"
"HH55-206B";"Stahl"
"HH55-207";"Stahl"
"HH55-208";"Stahl"
"HH55-208B";"Stahl"
"HH55-211";"Stahl"
"HH55-212";"Stahl"
"HH55-213";"Stahl"
"HH55-214";"Stahl"
"HH55-214B";"Stahl"
"HH55-217";"Stahl"
"HH55-219";"Stahl"
"HH55-219B";"Stahl"
"HH55-221";"Stahl"
"HH55-222";"Stahl"
"HH55-223";"Stahl"
"HH55-231";"Stahl"
"HH55-232";"Stahl"
"HH55-236";"Stahl"
"HH55-237";"Stahl"
"HH55-238";"Stahl"
"HH55-2382";"Stahl"
"HH55-238B";"Stahl"
"HH55-239";"Stahl"
"HH55-240";"Stahl"
"HH55-241";"Stahl"
"HH55-243";"Stahl"
"HH55-246";"Stahl"
"HH55-247";"Stahl"
"HH55-255";"Stahl"
"HH55-256";"Stahl"
"HH55-261";"Stahl"
"HH55-261B";"Stahl"
"HH55-331B";"Stahl"
"HH55-332";"Stahl"
"HH55-332B";"Stahl"
"HH55-333";"Stahl"
"HH55-333B";"Stahl"
"HH55-334";"Stahl"
"HH55-334B";"Stahl"
"HH55-501";"Stahl"
"HH55-501B";"Stahl"
"HH55-502";"Stahl"
"HH55-502B";"Stahl"
"HH55-504";"Stahl"
"HH55-508";"Stahl"
"HH55-510";"Stahl"
"HH55-511";"Stahl"
"HH55-512";"Stahl"
"HH55-513";"Stahl"
"HH55-515";"Stahl"
"HH55-540";"Stahl"
"HH55-540B";"Stahl"
"HH55-580";"Stahl"
"HH55-581";"Stahl"
"HH56-0042";"Stahl"
"HH56-0331";"Stahl"
"HH56-0332";"Stahl"
"HH56-0341";"Stahl"
"HH56-0361";"Stahl"
"HH56-0362";"Stahl"
"HH56-067";"Stahl"
"HH56-067B";"Stahl"
"HH59-0400";"Edelstahl"
"HH59-0400B";"Edelstahl"
"HH59-061";"Edelstahl"
"HH59-076";"Aluminium"
"HH59-097";"Edelstahl"
"HH591-013";"Stahl"
"HH591-017";"Stahl"
"HH591-018";"Stahl"
"HH591-020";"Stahl"
"HH591-020B";"Stahl"
"HH591-021";"Stahl"
"HH592-014";"Stahl"
"HH592-015";"Stahl"
"HH592-017";"Stahl"
"HH592-019";"Stahl"
"HH592-019B";"Stahl"
"HH592-020BK";"Stahl"
"HH592-021";"Stahl"
"HH593-014";"Stahl"
"HH593-015";"Stahl"
"HH593-016";"Stahl"
"HH593-017";"Stahl"
"HH593-019";"Stahl"
"HH593-019B";"Stahl"
"HH593-0600";"Stahl"
"HH594-014";"Stahl"
"HH594-018";"Stahl"
"HH594-018B";"Stahl"
"HH594-019";"Stahl"
"HH597-011";"Stahl"
"HH597-011B";"Stahl"
"HH597-012";"Stahl"
"HH597-012B";"Stahl"
"HH597-5004BK";"Stahl"
"HH597-5008";"Stahl"
"HH597-5008BK";"Stahl"
"HH597-5009";"Stahl"
"HH597-5009BK";"Stahl"
"HH597-5010";"Stahl"
"HH597-5010BK";"Stahl"
"HH598-020BK";"Stahl"
"HH598-030";"Stahl"
"HH598-030BK";"Stahl"
"HH598-050BK";"Stahl"
"HH599-011";"Stahl"
"HH599-011B";"Stahl"
"HH66-100";"Stahl"
"HH661-0131";"Stahl"
"HH661-0131BK";"Stahl"
"HH661-0181";"Stahl"
"HH661-0181BK";"Stahl"
"HH661-0381BK";"Stahl"
"HH661-040";"Stahl"
"HH661-040B";"Stahl"
"HH661-041";"Stahl"
"HH661-041B";"Stahl"
"HH661-053";"ABS"
"HH661-0631";"Aluminium"
"HH661-0631BK";"Aluminium"
"HH661-0681";"Aluminium"
"HH661-0681BK";"Aluminium"
"HH66-200A";"Stahl"
"HH66-200ABK";"Stahl"
"HH662-011";"Stahl"
"HH662-0131";"Stahl"
"HH662-0131BK";"Stahl"
"HH662-0141";"Stahl"
"HH662-0141BK";"Stahl"
"HH662-0142";"Stahl"
"HH662-0142BK";"Stahl"
"HH662-0161";"Stahl"
"HH662-0161BK";"Stahl"
"HH662-0171";"Stahl"
"HH662-0171BK";"Stahl"
"HH662-020";"Aluminium"
"HH662-026";"Aluminium"
"HH662-027";"Aluminium"
"HH662-0331";"Stahl"
"HH662-0342";"Stahl"
"HH662-0342BK";"Stahl"
"HH662-0371";"Stahl"
"HH662-0371BK";"Stahl"
"HH662-051";"ABS"
"HH662-0631";"Aluminium"
"HH662-0631BK";"Aluminium"
"HH662-0641";"Stahl"
"HH662-0641BK";"Stahl"
"HH662-0642";"Stahl"
"HH662-0642BK";"Stahl"
"HH662-0661";"Aluminium"
"HH662-0661BK";"Aluminium"
"HH662-0671";"Aluminium"
"HH662-0671BK";"Aluminium"
"HH663-0171";"Stahl"
"HH663-0171BK";"Stahl"
"HH663-0181BK";"Stahl"
"HH663-025";"Aluminium"
"HH663-0381BK";"Stahl"
"HH663-051";"ABS"
"HH663-053";"ABS"
"HH663-0671";"Aluminium"
"HH663-0671BK";"Aluminium"
"HH663-0681";"Stahl"
"HH663-0681BK";"Stahl"
"HH664-022";"Stahl"
"HH664-051";"ABS"
"HH666-0131";"Stahl"
"HH666-0131BK";"Stahl"
"HH666-0631";"Stahl"
"HH666-0631BK";"Stahl"
"HH667-0131";"Stahl"
"HH667-0131BK";"Stahl"
"HH667-020";"Stahl"
"HH667-0631";"Aluminium"
"HH667-0631BK";"Aluminium"
"HH668-0131";"Stahl"
"HH668-0131BK";"Stahl"
"HH668-0631";"Stahl"
"HH668-0631BK";"Stahl"
"HH68-170";"Stahl"
"HH68-171";"Stahl"
"HH68-172";"Stahl"
"HH68-173";"Stahl"
"HH68-188";"Stahl"
"HH698-025A";"Stahl"
"HH73-0150A";"poliert"
"HH73-0150B";"Aluminium"
"HH731-700";"Stahl"
"HH731-700B";"Stahl"
"HH731-700M";"Stahl"
"HH731-750";"Stahl"
"HH731-750B";"Stahl"
"HH731-751";"Stahl"
"HH731-751B";"Stahl"
"HH731-800";"Stahl"
"HH731-800B";"Stahl"
"HH731-800M";"Stahl"
"HH731-850";"Stahl"
"HH731-850B";"Stahl"
"HH732-0500";"poliert"
"HH732-700";"Stahl"
"HH732-700B";"Stahl"
"HH732-700M";"Stahl"
"HH732-701";"Stahl"
"HH732-701B";"Stahl"
"HH732-701M";"Stahl"
"HH732-702";"Stahl"
"HH732-702B";"Stahl"
"HH732-702M";"Stahl"
"HH732-750";"Stahl"
"HH732-750B";"Stahl"
"HH732-751";"Stahl"
"HH732-751B";"Stahl"
"HH732-752";"Stahl"
"HH732-752B";"Stahl"
"HH733-0500";"poliert"
"HH733-700";"Stahl"
"HH733-700B";"Stahl"
"HH733-700M";"Stahl"
"HH733-701";"Stahl"
"HH733-701B";"Stahl"
"HH733-701M";"Stahl"
"HH733-750B";"Stahl"
"HH733-751";"Stahl"
"HH733-751B";"Stahl"
"HH733-800";"Stahl"
"HH733-800B";"Stahl"
"HH733-800M";"Stahl"
"HH733-801";"Stahl"
"HH733-801B";"Stahl"
"HH733-801M";"Stahl"
"HH733-850";"Stahl"
"HH733-850B";"Stahl"
"HH733-851";"Stahl"
"HH733-851B";"Stahl"
"HH734-700";"Stahl"
"HH734-700B";"Stahl"
"HH734-700M";"Stahl"
"HH734-750";"Stahl"
"HH734-750B";"Stahl"
"HH734-801";"Stahl"
"HH734-801B";"Stahl"
"HH734-801M";"Stahl"
"HH734-802";"Stahl"
"HH734-802B";"Stahl"
"HH734-802M";"Stahl"
"HH734-851";"Stahl"
"HH734-851B";"Stahl"
"HH734-852";"Stahl"
"HH734-852B";"Stahl"
"HH738-700";"Stahl"
"HH738-700B";"Stahl"
"HH738-700M";"Stahl"
"HH738-750B";"Stahl"
"HHC55-033B";"Stahl"
"HHC55-035B";"Stahl"
"HHC55-036B";"Stahl"
"HHC55-037B";"Stahl"
"HHC55-041B";"Stahl"
"HHC73-150";"Stahl"
"HHC73-150B";"Stahl"
"LH2-1010";"Leder"
"LMOT2-1001";"Leder"
"LMOT2-1002";"Leder"
"LMOT2-1003";"Leder"
"LMOT2-1008";"Leder"
"LROL2-1010";"Leder"
"LROL2-1016";"Leder"
"LROL2-1017";"Leder"
"LROL2-1020";"Leder"
"LZAD2-1014";"Leder"
"LZAD2-1018";"Leder"
"LZAD2-1027";"Leder"
"LZAD2-1037";"Leder"
"LZAD2-1037N";"Leder"
"LZAD2-1040";"Leder"
"LZAD2-1041";"Leder"
"LZAD2-1043";"Leder"
"LZAD2-1057";"Leder"
"LZAD2-1059";"Leder"
"LZAD2-1063";"Leder"
"LZAD2-1072";"Leder"
"LZAD2-1073";"Leder"
"LZAD2-1074";"Leder"
"LZAD2-1075";"Leder"
"LZAD2-1075H";"Leder"
"LZAD2-1077";"Leder"
"LZAD2-1077H";"Leder"
"LZAD2-1079";"Leder"
"LZAD2-1080";"Leder"
"LZAD2-1084";"Leder"
"LZAD2-1087";"Leder"
"LZAD2-1088";"Leder"
"LZAD2-1089";"Leder"
"LZAD2-1096";"Leder"
"LZAD2-1097";"Leder"
"LZAD2-1098";"Leder"
"LZAD2-2001";"Leder"
"LZAD2-2005";"Leder"
"LZAD2-2005H";"Leder"
"LZAD2-2009";"Leder"
"LZAD2-2012";"Leder"
"LZAD2-2013";"Leder"
"LZAD2-2021";"Leder"
"LZAD2-2021H";"Leder"
"LZAD2-2022";"Leder"
"LZAD2-2023";"Leder"
"LZAD2-2024";"Leder"
